v 0.5 -0.5 -0.5
v 0.5 -0.5 0.5
v -0.5 -0.5 0.5
v -0.5 -0.5 -0.5
v 0.5 0.5 -0.5
v 0.5 0.5 0.5
v -0.5 0.5 0.5
v -0.5 0.5 -0.5
v 0.5 -0.5 -0.375
v 0.5 -0.5 0.375
v -0.5 -0.5 0.375
v -0.5 -0.5 -0.375
v 0.5 0.5 -0.375
v 0.5 0.5 0.375
v -0.5 0.5 0.375
v -0.5 0.5 -0.375
v 0.375 -0.5 -0.5
v 0.375 -0.5 0.5
v -0.375 -0.5 0.5
v -0.375 -0.5 -0.5
v 0.375 0.5 -0.5
v 0.375 0.5 0.5
v -0.375 0.5 0.5
v -0.375 0.5 -0.5
v 0.5 -0.375 -0.5
v 0.5 -0.375 0.5
v -0.5 -0.375 0.5
v -0.5 -0.375 -0.5
v 0.5 0.375 -0.5
v 0.5 0.375 0.5
v -0.5 0.375 0.5
v -0.5 0.375 -0.5
v 0.375 0.375 -0.125
v 0.375 0.375 0.125
v -0.375 0.375 0.125
v -0.375 0.375 -0.125
v 0.375 0.5 -0.125
v 0.375 0.5 0.125
v -0.375 0.5 0.125
v -0.375 0.5 -0.125
v 0.375 -0.375 -0.375
v 0.375 -0.375 0.375
v -0.375 -0.375 0.375
v -0.375 -0.375 -0.375
v 0.375 0.375 -0.375
v 0.375 0.375 0.375
v -0.375 0.375 0.375
v -0.375 0.375 -0.375
vt 1 0
vt 1 1
vt 0 1
vt 0 0
vt 1 0
vt 1 1
vt 0 1
vt 0 0
vt 1 0
vt 1 1
vt 0 1
vt 0 0
vt 0 1
vt 0 0
vt 1 0
vt 1 1
vt 1 0
vt 0 0
vt 0 1
vt 1 1
vt 0 1
vt 1 1
vt 1 0
vt 0 0
vt 1 0
vt 0 0
vt 0 1
vt 1 1
vt 1 0
vt 0 0
vt 0 1
vt 1 1
vt 0 1
vt 1 1
vt 0 1
vt 1 1
vt 1 0
vt 0 0
vt 0.9999 0.0001
vt 0.9999 0.9999
vt 0.0001 0.9999
vt 0.0001 0.0001
vt 0.0001 0.9999
vt 0.0001 0.0001
vt 0.9999 0.0001
vt 0.9999 0.9999
vt 0.875 0.875
vt 0.875 1
vt 0.125 1
vt 0.125 0.875
vt 0.125 1
vt 0.125 0.875
vt 0.875 0.875
vt 0.875 1
vt 0 1
vt 0 0
vt 1 0
vt 1 1
vt 1 0
vt 1 1
vt 0 1
vt 1 0
vt 1 1
vt 0 1
vt 0 0
vt 1 1
vt 0 1
vt 0 0
vt 0 1
vt 0 0
vt 1 0
vt 1 1
vt 0.0001 0.9999
vt 0.0001 0.0001
vt 0.9999 0.0001
vt 0.9999 0.9999
vn 1 0 0
vn 0 0 1
vn -1 0 0
vn 0 0 -1
vn 0 -1 0
vn 0 1 0
g 1
s off
f 1/1/1 5/2/1 6/3/1 2/4/1
f 2/5/2 6/6/2 7/7/2 3/8/2
f 3/9/3 7/10/3 8/11/3 4/12/3
f 5/13/4 1/14/4 4/15/4 8/16/4
f 10/17/4 11/18/4 15/19/4 14/20/4
f 13/21/2 16/22/2 12/23/2 9/24/2
f 17/25/3 18/26/3 22/27/3 21/28/3
f 19/29/1 20/30/1 24/31/1 23/32/1
g 2
f 1/33/5 2/4/5 3/9/5 4/34/5
f 25/35/6 28/36/6 27/37/6 26/38/6
g 3
f 29/39/5 30/40/5 31/41/5 32/42/5
f 8/43/6 7/44/6 6/45/6 5/46/6
g 4
f 34/47/2 38/48/2 39/49/2 35/50/2
f 37/51/4 33/52/4 36/53/4 40/54/4
g 5
f 41/55/5 42/56/5 43/57/5 44/58/5
f 41/59/1 45/60/1 46/61/1 42/56/1
f 42/62/2 46/63/2 47/64/2 43/65/2
f 43/57/3 47/66/3 48/67/3 44/68/3
f 45/69/4 41/70/4 44/71/4 48/72/4
f 48/73/6 47/74/6 46/75/6 45/76/6
